{
  "project_info": {
    "project_number": "969705407628",
    "project_id": "eperformancefcm-567ff",
    "storage_bucket": "eperformancefcm-567ff.appspot.com"
  },
  "client": [
    {
      "client_info": {
        "mobilesdk_app_id": "1:969705407628:android:659a4653308f51ccb7e7a9",
        "android_client_info": {
          "package_name": "id.go.kemensos.eperformance"
        }
      },
      "oauth_client": [
        {
          "client_id": "969705407628-mnd0ga7h9qvl3hf7usi4fh53nf7ipf8l.apps.googleusercontent.com",
          "client_type": 3
        }
      ],
      "api_key": [
        {
          "current_key": "AIzaSyCZRRNaPbrocMN7A7SEW8z423Wmpv3Ukos"
        }
      ],
      "services": {
        "appinvite_service": {
          "other_platform_oauth_client": [
            {
              "client_id": "969705407628-mnd0ga7h9qvl3hf7usi4fh53nf7ipf8l.apps.googleusercontent.com",
              "client_type": 3
            }
          ]
        }
      }
    }
  ],
  "configuration_version": "1"
}